Galen - Testing VicWater API
…
Can I tibble that up?

s <- as_tibble(rbody_s_ds[2]) %>% # the [2] drops the error column
  unnest_longer(col = where(is.list)) %>% # a `return` list
  unnest_wider(col = where(is.list)) %>% # sites, and a `datasource` list
  unnest_longer(col = where(is.list)) # fully unpacked into a long df
s

# A tibble: 6,137 × 2
   datasource sites 
   <chr>      <chr> 
 1 A          100023
 2 A          100500
 3 A          100503
 4 A          100504
 5 A          101708
 6 A          102621
 7 A          102827
 8 A          102828
 9 A          102829
10 A          102830
# … with 6,127 more rows
…
plot_datasources_by_site(s) + coord_flip()

yikes.

Test package version

devtools::load_all('C:/Users/Galen/Documents/vicwater')

ℹ Loading vicwater

sxd <- get_sites_by_datasource(datasources = c('A', 'TELEM'))

sxd

# A tibble: 6,172 × 2
   datasource site  
   <chr>      <chr> 
 1 A          100023
 2 A          100500
 3 A          100503
 4 A          100504
 5 A          101708
 6 A          102621
 7 A          102827
 8 A          102828
 9 A          102829
10 A          102830
# … with 6,162 more rows
…
Try with two datasources

v2 <- get_variable_list(site_list = allsites, datasource = c('A', 'TELEM'))

v2

# A tibble: 27 × 11
   site   short_…¹ long_…² varia…³ units var_n…⁴ perio…⁵ perio…⁶ subdesc datas…⁷
   <chr>  <chr>    <chr>   <chr>   <chr> <chr>   <chr>   <chr>   <chr>   <chr>  
 1 233217 BARWON … BARWON… 100.00  metr… Stream… 196103… 202211… Availa… A      
 2 233217 BARWON … BARWON… 210.00  pH    Acidit… 201007… 202211… Availa… A      
 3 233217 BARWON … BARWON… 215.00  ppm   Dissol… 201007… 202211… Availa… A      
 4 233217 BARWON … BARWON… 450.00  Degr… Water … 201007… 202211… Availa… A      
 5 233217 BARWON … BARWON… 810.00  NTU   Turbid… 201007… 202211… Availa… A      
 6 233217 BARWON … BARWON… 820.00  µS/c… Conduc… 201007… 202211… Availa… A      
 7 405328 STEAVEN… STEAVE… 100.00  metr… Stream… 200911… 202212… Availa… A      
 8 405331 TAGGERT… TAGGER… 100.00  metr… Stream… 201007… 201302… Availa… A      
 9 405331 TAGGERT… TAGGER… 450.00  Degr… Water … 201007… 201302… Availa… A      
10 405331 TAGGERT… TAGGER… 810.00  NTU   Turbid… 201007… 201302… Availa… A      
# … with 17 more rows, 1 more variable: timezone <chr>, and abbreviated
#   variable names ¹​short_name, ²​long_name, ³​variable, ⁴​var_name,
#   ⁵​period_start, ⁶​period_end, ⁷​datasource
…
