Testing hydrogauge API – Galen Holt
…
Can I tibble that up?

s <- as_tibble(rbody_s_ds[2]) %>% # the [2] drops the error column
  unnest_longer(col = where(is.list)) %>% # a `return` list
  unnest_wider(col = where(is.list)) %>% # sites, and a `datasource` list
  unnest_longer(col = where(is.list)) # fully unpacked into a long df
s

# A tibble: 5,409 × 2
   datasource sites 
   <chr>      <chr> 
 1 A          100023
 2 A          100500
 3 A          100503
 4 A          100504
 5 A          101708
 6 A          102621
 7 A          102827
 8 A          102828
 9 A          102829
10 A          102830
# ℹ 5,399 more rows
…
plot_datasources_by_site(s) + coord_flip()

yikes.

Test package version

devtools::load_all('C:/Users/Galen/Documents/code/hydrogauge')

ℹ Loading hydrogauge

sxd <- get_sites_by_datasource(portal = 'vic', datasources = c('A', 'TELEM'))

sxd

# A tibble: 5,409 × 2
   datasource site  
   <chr>      <chr> 
 1 A          100023
 2 A          100500
 3 A          100503
 4 A          100504
 5 A          101708
 6 A          102621
 7 A          102827
 8 A          102828
 9 A          102829
10 A          102830
# ℹ 5,399 more rows
…
Try with two datasources

v2 <- get_variable_list(portal = 'vic', site_list = allsites, datasource = c('A', 'TELEM'))

v2

# A tibble: 24 × 11
   site   short_name       long_name variable units var_name period_start       
   <chr>  <chr>            <chr>     <chr>    <chr> <chr>    <dttm>             
 1 233217 BARWON @ GEELONG BARWON R… 100.00   metr… Stream … 1961-03-06 07:15:00
 2 233217 BARWON @ GEELONG BARWON R… 210.00   pH    Acidity… 2010-07-06 02:31:00
 3 233217 BARWON @ GEELONG BARWON R… 215.00   ppm   Dissolv… 2010-07-06 02:31:00
 4 233217 BARWON @ GEELONG BARWON R… 450.00   Degr… Water T… 2010-07-06 02:31:00
 5 233217 BARWON @ GEELONG BARWON R… 810.00   NTU   Turbidi… 2010-07-06 02:31:00
 6 233217 BARWON @ GEELONG BARWON R… 820.00   µS/c… Conduct… 2010-07-06 02:31:00
 7 405328 STEAVENSON R @ … STEAVENS… 100.00   metr… Stream … 2009-11-19 07:08:00
 8 405331 TAGGERTY R LADY… TAGGERTY… 100.00   metr… Stream … 2010-07-29 02:20:00
 9 405331 TAGGERTY R LADY… TAGGERTY… 450.00   Degr… Water T… 2010-07-29 02:20:00
10 405331 TAGGERTY R LADY… TAGGERTY… 810.00   NTU   Turbidi… 2010-07-29 02:20:00
# ℹ 14 more rows
# ℹ 4 more variables: period_end <dttm>, subdesc <chr>, datasource <chr>,
#   database_timezone <chr>
…
Unpack

db <- as_tibble(rbody_grp[2]) %>% # the [2] drops the error column
  unnest_wider(col = where(is.list)) %>% # a `return` list
  unnest_longer(col = where(is.list))

Drop the stations- what are the groups?

db %>% select(-stations) %>% distinct()

# A tibble: 34 × 4
   group_decode                         group     value   value_decode          
   <chr>                                <chr>     <chr>   <chr>                 
 1 to be at the top of the list         AB        CTS     list of site A files …
 2 to be at the top of the list         AB        FLOOD   All VIR Sites for Flo…
 3 All sites in archive                 ALLA      10PLUS  sites with records lo…
 4 All sites in archive                 ALLA      30PLUS  sites with records lo…
 5 All sites in archive                 ALLA      ARCHIVE Archive files         
 6 All sites in archive                 ALLA      FLOWA   All sites with flow (…
 7 All sites in archive                 ALLA      LEVEL   All sites with level …
 8 All sites in archive                 ALLA      VFLOW   Virtual sites with fl…
 9 Goups for the CMA areas              CMA       CCMA    <NA>                  
10 daily on change generated site lists HYVIRTUAL TS      list of site A files …
# ℹ 24 more rows
…
