Venn diagrams – Galen Holt
…
And the area_error is always very low

manysets

# A tibble: 22 × 10
   set_pair set_num  area overlapfrac overlap radius     d  area_calc area_error
      <int>   <int> <dbl>       <dbl>   <dbl>  <dbl> <dbl>      <dbl>      <dbl>
 1        1       1 73.7          0      0      4.84  7.42 0.00000176 0.00000176
 2        1       2 20.8          0      0      2.58  7.42 0.00000176 0.00000176
 3        2       1 15.8          0.1    1.58   2.24  6.56 1.58       0.0000554 
 4        2       2 81.7          0.1    1.58   5.10  6.56 1.58       0.0000554 
 5        3       1  8.83         0.2    1.77   1.68  6.36 1.77       0.0000764 
 6        3       2 98.5          0.2    1.77   5.60  6.36 1.77       0.0000764 
 7        4       1 17.3          0.3    5.20   2.35  5.21 5.20       0.0000348 
 8        4       2 67.5          0.3    5.20   4.63  5.21 5.20       0.0000348 
 9        5       1 24.9          0.4    9.96   2.81  5.55 9.96       0.0000984 
10        5       2 89.7          0.4    9.96   5.34  5.55 9.96       0.0000984 
# ℹ 12 more rows
# ℹ 1 more variable: centers <dbl>
…
