Galen Holt - Tidy programming
…
Warning: Returning more (or less) than 1 row per `summarise()` group was deprecated in
dplyr 1.1.0.
ℹ Please use `reframe()` instead.
ℹ When switching from `summarise()` to `reframe()`, remember that `reframe()`
  always returns an ungrouped data frame and adjust accordingly.

`summarise()` has grouped output by 'gear', 'carb'. You can override using the
`.groups` argument.

bracechecka

# A tibble: 22 × 5
    gear  carb prefix_1_disp prefix_1_drat prefix_1_nampg
   <dbl> <dbl> <named list>  <named list>  <named list>  
 1     3     1 <fn>          <fn>          <fn>          
 2     3     1 <fn>          <fn>          <fn>          
 3     3     2 <fn>          <fn>          <fn>          
 4     3     2 <fn>          <fn>          <fn>          
 5     3     3 <fn>          <fn>          <fn>          
 6     3     3 <fn>          <fn>          <fn>          
 7     3     4 <fn>          <fn>          <fn>          
 8     3     4 <fn>          <fn>          <fn>          
 9     4     1 <fn>          <fn>          <fn>          
10     4     1 <fn>          <fn>          <fn>          
# ℹ 12 more rows
…
