Galen Holt - Atlas of living australia
…
This query will return 110 records

Checking queue
Current queue size: 1. 0 
Running query on selected atlas

  |                                                                            
  |                                                                      |   0%
  |                                                                            
  |======================================================================| 100%
Downloading

lippia

# A tibble: 110 × 8
   decimalLatitude decimalLong…¹ event…² scien…³ taxon…⁴ recor…⁵ dataR…⁶ occur…⁷
             <dbl>         <dbl> <chr>   <chr>   <chr>   <chr>   <chr>   <chr>  
 1           -41.1         175.  "1952-… Lippia  https:… 3db5bc… New Ze… PRESENT
 2           -36.9         175.  "1992-… Lippia  https:… d51007… New Ze… PRESENT
 3           -36.8         175.  ""      Lippia  https:… 1839dd… New Ze… PRESENT
 4           -35.3         139.  "2020-… Lippia  https:… 5083b7… iNatur… PRESENT
 5           -35.0         147.  "2018-… Lippia  https:… 40762c… iNatur… PRESENT
 6           -34.3         142.  "2021-… Lippia  https:… e7126f… iNatur… PRESENT
 7           -26.5         151.  "2010-… Lippia… https:… 42c542… WildNe… PRESENT
 8           -25.1          27.6 ""      Lippia  https:… b9034a… Nation… PRESENT
 9           -23.7         -46.4 "1931-… Lippia  https:… e29b4d… Austra… PRESENT
10           -23.6         149.  "1999-… Lippia… https:… b66e2f… BRI AV… PRESENT
# … with 100 more rows, and abbreviated variable names ¹​decimalLongitude,
#   ²​eventDate, ³​scientificName, ⁴​taxonConceptID, ⁵​recordID, ⁶​dataResourceName,
#   ⁷​occurrenceStatus
…
This query will return 1640 records

Checking queue
Current queue size: 1. 0 
Running query on selected atlas

  |                                                                            
  |                                                                      |   0%
  |                                                                            
  |======================================================================| 100%
Downloading

lippia_phyla

# A tibble: 1,640 × 8
   decimalLatitude decimalLong…¹ event…² scien…³ taxon…⁴ recor…⁵ dataR…⁶ occur…⁷
             <dbl>         <dbl> <chr>   <chr>   <chr>   <chr>   <chr>   <chr>  
 1           -43.6          173. 1976-0… Phyla … https:… 9292f3… New Ze… PRESENT
 2           -41.3          173. 2019-0… Phyla … https:… 2ae17f… New Ze… PRESENT
 3           -41.1          175. 1952-0… Lippia  https:… 3db5bc… New Ze… PRESENT
 4           -39.3          178. 1976-0… Phyla … https:… ffc4c1… New Ze… PRESENT
 5           -38.2          145. 2022-1… Phyla … https:… 4026cd… iNatur… PRESENT
 6           -38.1          145. 2023-0… Phyla … https:… 7cd4b0… iNatur… PRESENT
 7           -37.9          145. 2022-0… Phyla … https:… a5fc0f… iNatur… PRESENT
 8           -37.9          145. 2021-1… Phyla … https:… 996c0d… iNatur… PRESENT
 9           -37.9          145. 2020-1… Phyla … https:… 6d20ff… iNatur… PRESENT
10           -37.9          145. 2022-0… Phyla … https:… 482077… iNatur… PRESENT
# … with 1,630 more rows, and abbreviated variable names ¹​decimalLongitude,
#   ²​eventDate, ³​scientificName, ⁴​taxonConceptID, ⁵​recordID, ⁶​dataResourceName,
#   ⁷​occurrenceStatus
…
