Waterdata from BOM – Galen Holt
…
It looks like there is a getDataAvailabiltiy option in the API, but bomWater doesn’t query it. The requests in bomWater don’t obviously map to the docs, so this would take some tweaking.

In searching for how the ‘request’ in bomWater turns into the getSomethingSomething in the API (unsuccessfully), I found another package to try. It’s canadian, but seems to hit Kisters WISKI generally.

library('kiwisR')

Check it works.

ki_timeseries_list(hub = 'https://www.swmc.mnr.gov.on.ca/KiWIS/KiWIS?', station_id = '144659')

# A tibble: 223 × 6
   station_name station_id ts_id ts_name from                to                 
   <chr>        <chr>      <chr> <chr>   <dttm>              <dttm>             
 1 Jackson Cre… 144659     9489… Precip… 2007-06-18 20:15:00 2024-09-10 22:15:00
 2 Jackson Cre… 144659     1143… Precip… 2007-07-01 05:00:00 2020-09-01 05:00:00
 3 Jackson Cre… 144659     1143… Precip… 2007-06-18 05:00:00 2024-09-11 05:00:00
 4 Jackson Cre… 144659     9489… TAir.1… 2007-06-18 20:15:00 2024-09-10 22:15:00
 5 Jackson Cre… 144659     9489… TAir.D… 2007-06-18 05:00:00 2024-09-09 05:00:00
 6 Jackson Cre… 144659     9489… TAir.D… 2007-06-18 05:00:00 2024-09-09 05:00:00
 7 Jackson Cre… 144659     1129… TAir.6… 2007-06-19 00:00:00 2024-09-10 18:00:00
 8 Jackson Cre… 144659     1326… TAir.D… 2007-06-18 05:00:00 2024-09-11 05:00:00
 9 Jackson Cre… 144659     1326… TAir.D… 2007-06-18 05:00:00 2024-09-11 05:00:00
10 Jackson Cre… 144659     9490… TWater… 2007-06-18 05:00:00 2024-09-09 05:00:00
# ℹ 213 more rows
…
ki_station_list(hub = "http://www.bom.gov.au/waterdata/services")

It doesn’t seem to work to search for stations by id though.

ki_station_list(hub = "http://www.bom.gov.au/waterdata/services", search_term = "A4260505")

# A tibble: 0 × 5
# ℹ 5 variables: station_name <chr>, station_no <chr>, station_id <chr>,
#   station_latitude <dbl>, station_longitude <dbl>

Ah! It hits the station_name, not the gauge number in station_no

ki_station_list(hub = "http://www.bom.gov.au/waterdata/services", search_term = "A*")

# A tibble: 1,951 × 5
   station_name station_no station_id station_latitude station_longitude
   <chr>        <chr>      <chr>                 <dbl>             <dbl>
 1 A            61700620   400630                -30.3              115.
 2 A            60210202   11517225              -35.1              118.
 3 A            60210203   11517229              -35.1              118.
 4 A            60210201   11517221              -35.1              118.
 5 A            60210298   11520185              -35.1              118.
 6 A            61311025   11457669              -32.7              116.
 7 A            120310078  11287358              -25.5              129.
 8 A            60110485   11465949              -33.7              121.
 9 A            60110497   11465977              -33.7              121.
10 A            60110584   11466057              -33.6              122.
# ℹ 1,941 more rows
…
ki_station_list(hub = "http://www.bom.gov.au/waterdata/services",
                search_term = "River Murray at Lock 9 Downstream*")

# A tibble: 1 × 5
  station_name          station_no station_id station_latitude station_longitude
  <chr>                 <chr>      <chr>                 <dbl>             <dbl>
1 River Murray at Lock… A4260505   1617110               -34.2              142.

The ki_timeseries_list uses station_id. But I’ve been feeding it gauge numbers, which are station_no. It works with the ID.

tl <- ki_timeseries_list(hub = "http://www.bom.gov.au/waterdata/services", station_id = '1617110')

tl

# A tibble: 55 × 6
   station_name station_id ts_id ts_name from                to                 
   <chr>        <chr>      <chr> <chr>   <dttm>              <dttm>             
 1 River Murra… 1617110    2086… Receiv… NA                  NA                 
 2 River Murra… 1617110    2086… Harmon… NA                  NA                 
 3 River Murra… 1617110    2086… DMQaQc… 1949-07-01 23:29:59 2024-09-08 22:30:01
 4 River Murra… 1617110    2086… DMQaQc… 2008-11-26 04:34:59 2024-09-09 22:15:01
 5 River Murra… 1617110    2086… DMQaQc… 2008-11-26 03:30:00 2024-09-09 21:30:00
 6 River Murra… 1617110    3293… Derive… NA                  NA                 
 7 River Murra… 1617110    3293… PR01Ma… NA                  NA                 
 8 River Murra… 1617110    3293… PR01Ma… NA                  NA                 
 9 River Murra… 1617110    3293… PR01Qa… 1949-07-01 23:29:59 2024-09-08 22:30:01
10 River Murra… 1617110    3293… PR01Qa… 1949-07-01 23:29:59 2024-09-08 22:30:01
# ℹ 45 more rows
…
To confirm, look for a river definitely not in the MDB- the Gordon (at least some of these around -42 latitude) are in Tassie.

ki_station_list(hub = "http://www.bom.gov.au/waterdata/services",
                search_term = "Gordon*")

# A tibble: 29 × 5
   station_name         station_no station_id station_latitude station_longitude
   <chr>                <chr>      <chr>                 <dbl>             <dbl>
 1 GORDON BK@FINEFLOWER 204067     586091                -29.4              153.
 2 GORDON LAKE - AT IN… 646.1      3162538               -42.7              146.
 3 GORDON RIVER - A/B … 187.1      3295551               -42.6              146.
 4 GORDON RIVER - ABOV… 2491.1     3297416               -42.7              146.
 5 Gordon               61310704   11447065              -33.0              116.
 6 Gordon               509568     383787                -32.6              116.
 7 Gordon Bore Rainfall 570823     14015                 -35.5              149.
 8 Gordon Catchment     614060     392486                -32.6              116.
 9 Gordon Clim17M Tower 509582     383835                -32.6              116.
10 Gordon Clim33 Tower  509581     383828                -32.6              116.
# ℹ 19 more rows
…
