Galen - Interrogating parallel functions
…
                         bind_rows(outerpre, inner_out, outerpost)

                       }
  
  return(outer_out)
}

PID division

test10 <- outer_par(outer_size = 10, innerfun = inner_par, inner_size = 10)
test10

# A tibble: 120 × 4
   loop      outer_iteration inner_iteration   pid
   <chr>               <int>           <int> <int>
 1 outer_pre               1              NA 15212
 2 inner                   1               1 15212
 3 inner                   1               2 15212
 4 inner                   1               3 15212
 5 inner                   1               4 15212
 6 inner                   1               5 15212
 7 inner                   1               6 15212
 8 inner                   1               7 15212
 9 inner                   1               8 15212
10 inner                   1               9 15212
# … with 110 more rows
…
