Interrogating parallel functions – Galen Holt
…
                         bind_rows(outerpre, inner_out, outerpost)

                       }
  
  return(outer_out)
}

PID division

test10 <- outer_par(outer_size = 10, innerfun = inner_par, inner_size = 10)
test10

# A tibble: 120 × 4
   loop      outer_iteration inner_iteration   pid
   <chr>               <int>           <int> <int>
 1 outer_pre               1              NA 22364
 2 inner                   1               1 22364
 3 inner                   1               2 22364
 4 inner                   1               3 22364
 5 inner                   1               4 22364
 6 inner                   1               5 22364
 7 inner                   1               6 22364
 8 inner                   1               7 22364
 9 inner                   1               8 22364
10 inner                   1               9 22364
# ℹ 110 more rows
…
