Galen Holt - Testing plans and systems
…
[1] "## available Cores:"
[1] "### non-slurm"
system 
    20 
[1] "### slurm method"
current 
      1 
[1] "## Main PID:"
[1] 24368
[1] "## Unique processes"
[1] 1
[1] "This should be the IDs of all cores used"
[1] 24368
[1] "## Full loop data"
# A tibble: 625 × 4
   plan       outer_iteration inner_iteration   pid
   <chr>                <int>           <int> <int>
 1 sequential               1               1 24368
 2 sequential               1               2 24368
 3 sequential               1               3 24368
 4 sequential               1               4 24368
 5 sequential               1               5 24368
 6 sequential               1               6 24368
 7 sequential               1               7 24368
 8 sequential               1               8 24368
 9 sequential               1               9 24368
10 sequential               1              10 24368
# … with 615 more rows
…
[1] "### non-slurm"
system 
    20 
[1] "### slurm method"
current 
      1 
[1] "## Main PID:"
[1] 24368
[1] "## Unique processes"
[1] 20
[1] "This should be the IDs of all cores used"
 [1] 26432 22348 26260 24924 21440 25436 11104  4544 18052 12440 18076 22024
[13] 25728 20768  7728 12632  6628 25368 23212 24668
[1] "## Full loop data"
# A tibble: 625 × 4
   plan         outer_iteration inner_iteration   pid
   <chr>                  <int>           <int> <int>
 1 multisession               1               1 26432
 2 multisession               1               2 26432
 3 multisession               1               3 26432
 4 multisession               1               4 26432
 5 multisession               1               5 26432
 6 multisession               1               6 26432
 7 multisession               1               7 26432
 8 multisession               1               8 26432
 9 multisession               1               9 26432
10 multisession               1              10 26432
# … with 615 more rows
…
[1] "## available Cores:"
[1] "### non-slurm"
system 
    20 
[1] "### slurm method"
current 
      1 
[1] "## Main PID:"
[1] 24368
[1] "## Unique processes"
[1] 1
[1] "This should be the IDs of all cores used"
[1] 24368
[1] "## Full loop data"
# A tibble: 625 × 4
   plan      outer_iteration inner_iteration   pid
   <chr>               <int>           <int> <int>
 1 multicore               1               1 24368
 2 multicore               1               2 24368
 3 multicore               1               3 24368
 4 multicore               1               4 24368
 5 multicore               1               5 24368
 6 multicore               1               6 24368
 7 multicore               1               7 24368
 8 multicore               1               8 24368
 9 multicore               1               9 24368
10 multicore               1              10 24368
# … with 615 more rows
…
